2017-06-15,ZDI-17-411,http://www.zerodayinitiative.com/advisories/ZDI-17-411,Foxit Reader JPXDecode stream Out-Of-Bounds Write Remote Code Execution Vulnerability,CVE:---------,
2017-06-14,ZDI-17-410,http://www.zerodayinitiative.com/advisories/ZDI-17-410,Novell ZENworks Reporting Appliance Directory Traversal Arbitrary File Creation Vulnerability,CVE:---------,
2017-06-13,ZDI-17-409,http://www.zerodayinitiative.com/advisories/ZDI-17-409,Microsoft Windows OTL Font Parsing Out-Of-Bounds Read Information Disclosure Vulnerability,CVE-2017-0285,
2017-06-13,ZDI-17-408,http://www.zerodayinitiative.com/advisories/ZDI-17-408,Adobe Flash LocaleID determinePreferredLocales Uninitialized Memory Remote Code Execution Vulnerability,CVE-2017-3082,
2017-06-13,ZDI-17-407,http://www.zerodayinitiative.com/advisories/ZDI-17-407,Adobe Flash AuditudeSettings clone Use-After-Free Remote Code Execution Vulnerability,CVE-2017-3084,
2017-06-13,ZDI-17-406,http://www.zerodayinitiative.com/advisories/ZDI-17-406,Adobe Flash Profile Use-After-Free Remote Code Execution Vulnerability,CVE-2017-3083,
2017-06-13,ZDI-17-405,http://www.zerodayinitiative.com/advisories/ZDI-17-405,Microsoft Windows OTL Font Parsing Out-Of-Bounds Read Information Disclosure Vulnerability,CVE-2017-8532,
2017-06-13,ZDI-17-404,http://www.zerodayinitiative.com/advisories/ZDI-17-404,(Pwn2Own) Microsoft Windows NtUserLinkDpiCursor Use-After-Free Privilege Escalation Vulnerability,CVE-2017-8466,
2017-06-13,ZDI-17-403,http://www.zerodayinitiative.com/advisories/ZDI-17-403,(Pwn2Own) Microsoft Windows NtUserLinkDpiCursor Use-After-Free Privilege Escalation Vulnerability,CVE-2017-8468,
2017-06-13,ZDI-17-402,http://www.zerodayinitiative.com/advisories/ZDI-17-402,(Pwn2Own) Microsoft Windows NtUserLinkDpiCursor Use-After-Free Privilege Escalation Vulnerability,CVE-2017-8465,
2017-06-13,ZDI-17-401,http://www.zerodayinitiative.com/advisories/ZDI-17-401,Microsoft Internet Explorer InsertRow Out-Of-Bounds Read Remote Code Execution Vulnerability,CVE-2017-8547,
2017-06-13,ZDI-17-400,http://www.zerodayinitiative.com/advisories/ZDI-17-400,(Pwn2Own) Microsoft Windows TdxCreateTransportAddress Buffer Overflow Privilege Escalation Vulnerability,CVE-2017-0296,
2017-06-13,ZDI-17-399,http://www.zerodayinitiative.com/advisories/ZDI-17-399,Adobe Flash XML load Use-After-Free Remote Code Execution Vulnerability,CVE-2017-3075,
2017-06-13,ZDI-17-398,http://www.zerodayinitiative.com/advisories/ZDI-17-398,Microsoft Windows PDF Library JPEG2000 Parsing Out-Of-Bounds Read Information Disclosure Vulnerability,CVE-2017-8460,
2017-06-13,ZDI-17-397,http://www.zerodayinitiative.com/advisories/ZDI-17-397,Microsoft Windows PDF Library JPEG2000 Parsing Out-Of-Bounds Write Remote Code Execution Vulnerability,CVE-2017-0292,
2017-06-13,ZDI-17-396,http://www.zerodayinitiative.com/advisories/ZDI-17-396,Trend Micro Maximum Security tmusa Time-Of-Check/Time-Of-Use Privilege Escalation Vulnerability,CVE:---------,
2017-06-13,ZDI-17-395,http://www.zerodayinitiative.com/advisories/ZDI-17-395,Trend Micro Maximum Security tmusa Kernel Driver Untrusted Pointer Dereference Denial of Service Vulnerability,CVE:---------,
2017-06-12,ZDI-17-394,http://www.zerodayinitiative.com/advisories/ZDI-17-394,EMC Data Protection Advisor ImageServlet Directory Traversal Information Disclosure Vulnerability,CVE-2016-8211,
2017-06-12,ZDI-17-393,http://www.zerodayinitiative.com/advisories/ZDI-17-393,Hewlett Packard Enterprise Universal CMDB UploadFileOnUIServerServlet Directory Traversal Remote Code Execution Vulnerability,CVE-2017-8947,
2017-06-12,ZDI-17-392,http://www.zerodayinitiative.com/advisories/ZDI-17-392,(0Day) Schneider Electric U.motion Builder Local Privilege Escalation Vulnerability,CVE:---------,
2017-06-12,ZDI-17-391,http://www.zerodayinitiative.com/advisories/ZDI-17-391,(0Day) Schneider Electric U.motion Builder Embedded Session ID Authentication Bypass Vulnerability,CVE:---------,
2017-06-12,ZDI-17-390,http://www.zerodayinitiative.com/advisories/ZDI-17-390,(0Day) Schneider Electric U.motion Builder css.inc Directory Traversal Information Disclosure Vulnerability,CVE:---------,
2017-06-12,ZDI-17-389,http://www.zerodayinitiative.com/advisories/ZDI-17-389,(0Day) Schneider Electric U.motion Builder runscript Directory Traversal Information Disclosure Vulnerability,CVE:---------,
2017-06-12,ZDI-17-388,http://www.zerodayinitiative.com/advisories/ZDI-17-388,(0Day) Schneider Electric U.motion Builder file_picker Directory Traversal Arbitrary File Upload Remote Code Execution Vulnerability,CVE:---------,
2017-06-12,ZDI-17-387,http://www.zerodayinitiative.com/advisories/ZDI-17-387,(0Day) Schneider Electric U.motion Builder SOAP Request Remote SQL Command Execution Vulnerability,CVE:---------,
2017-06-12,ZDI-17-386,http://www.zerodayinitiative.com/advisories/ZDI-17-386,(0Day) Schneider Electric U.motion Builder Error Message Path Information Disclosure Vulnerability,CVE:---------,
2017-06-12,ZDI-17-385,http://www.zerodayinitiative.com/advisories/ZDI-17-385,(0Day) Schneider Electric U.motion Builder error Information Disclosure Vulnerability,CVE:---------,
2017-06-12,ZDI-17-384,http://www.zerodayinitiative.com/advisories/ZDI-17-384,(0Day) Schneider Electric U.motion Builder editobject SQL Injection Remote Code Execution Vulnerability,CVE:---------,
2017-06-12,ZDI-17-383,http://www.zerodayinitiative.com/advisories/ZDI-17-383,(0Day) Schneider Electric U.motion Builder xmlserver SQL Injection  Remote Code Execution Vulnerability,CVE:---------,
2017-06-12,ZDI-17-382,http://www.zerodayinitiative.com/advisories/ZDI-17-382,(0Day) Schneider Electric U.motion Builder track_getdata SQL Injection Remote Code Execution Vulnerability,CVE:---------,
2017-06-12,ZDI-17-381,http://www.zerodayinitiative.com/advisories/ZDI-17-381,(0Day) Schneider Electric U.motion Builder nfcserver SQL Injection Remote Code Execution Vulnerability,CVE:---------,
2017-06-12,ZDI-17-380,http://www.zerodayinitiative.com/advisories/ZDI-17-380,(0Day) Schneider Electric U.motion Builder localize SQL Injection Remote Code Execution Vulnerability,CVE:---------,
2017-06-12,ZDI-17-379,http://www.zerodayinitiative.com/advisories/ZDI-17-379,(0Day) Schneider Electric U.motion Builder syslog_getdata SQL Injection Remote Code Execution Vulnerability,CVE:---------,
2017-06-12,ZDI-17-378,http://www.zerodayinitiative.com/advisories/ZDI-17-378,(0Day) Schneider Electric U.motion Builder track_import_export SQL Injection Remote Code Execution Vulnerability,CVE:---------,
2017-06-12,ZDI-17-377,http://www.zerodayinitiative.com/advisories/ZDI-17-377,(0Day) Schneider Electric U.motion Builder HTTP Cookie SQL Injection Remote Code Execution Vulnerability,CVE:---------,
2017-06-12,ZDI-17-376,http://www.zerodayinitiative.com/advisories/ZDI-17-376,(0Day) Schneider Electric U.motion Builder editscript Directory Traversal Remote Code Execution Vulnerability,CVE:---------,
2017-06-12,ZDI-17-375,http://www.zerodayinitiative.com/advisories/ZDI-17-375,(0Day) Schneider Electric U.motion Builder message_simple_html reboot Parameter Denial of Service Vulnerability,CVE:---------,
2017-06-12,ZDI-17-374,http://www.zerodayinitiative.com/advisories/ZDI-17-374,(0Day) Schneider Electric U.motion Builder loadtemplate SQL Injection Remote Code Execution Vulnerability,CVE:---------,
2017-06-12,ZDI-17-373,http://www.zerodayinitiative.com/advisories/ZDI-17-373,(0Day) Schneider Electric U.motion Builder sendmail email_attachment Parameter Absolute Path Traversal Information Disclosure Vulnerability,CVE:---------,
2017-06-12,ZDI-17-372,http://www.zerodayinitiative.com/advisories/ZDI-17-372,(0Day) Schneider Electric U.motion Builder Hard-Coded Password Remote Code Execution Vulnerability,CVE:---------,
2017-05-30,ZDI-17-371,http://www.zerodayinitiative.com/advisories/ZDI-17-371,Microsoft Windows JavaScript Array Type Confusion Remote Code Execution Vulnerability,CVE-2017-0266,
2017-05-30,ZDI-17-370,http://www.zerodayinitiative.com/advisories/ZDI-17-370,(Pwn2Own) Apple macOS nsurlstoraged Null Pointer Dereference Denial of Service Vulnerability,CVE:---------,
2017-05-30,ZDI-17-369,http://www.zerodayinitiative.com/advisories/ZDI-17-369,(Pwn2Own) Apple Safari WebSQL matchinfo Type Confusion Remote Code Execution Vulnerability,CVE-2017-7002,
2017-05-30,ZDI-17-368,http://www.zerodayinitiative.com/advisories/ZDI-17-368,(Pwn2Own) Apple Safari WebSQL offsets Type Confusion Remote Code Execution Vulnerability,CVE-2017-7001,
2017-05-30,ZDI-17-367,http://www.zerodayinitiative.com/advisories/ZDI-17-367,(Pwn2Own) Apple Safari WebSQL snippet Type Confusion Remote Code Execution Vulnerability,CVE-2017-7000,
2017-05-30,ZDI-17-366,http://www.zerodayinitiative.com/advisories/ZDI-17-366,(Pwn2Own) Apple Safari WebSQL optimize Type Confusion Remote Code Execution Vulnerability,CVE-2017-6983,
2017-05-18,ZDI-17-365,http://www.zerodayinitiative.com/advisories/ZDI-17-365,Hewlett Packard Enterprise Cloud Optimizer DownloadServlet Information Disclosure Vulnerability,CVE-2017-8944,
2017-05-18,ZDI-17-364,http://www.zerodayinitiative.com/advisories/ZDI-17-364,(Pwn2Own) Apple macOS AppleMultitouchDevice Use-After-Free Privilege Escalation Vulnerability,CVE-2017-2543,
2017-05-18,ZDI-17-363,http://www.zerodayinitiative.com/advisories/ZDI-17-363,(Pwn2Own) Apple macOS AppleMultitouchDevice Uninitialized Memory Information Disclosure Vulnerability,CVE-2017-2542,
2017-05-18,ZDI-17-362,http://www.zerodayinitiative.com/advisories/ZDI-17-362,(Pwn2Own) Apple Safari ProcessingInstruction Use-After-Free Remote Code Execution Vulnerability,CVE-2017-2538,
2017-05-18,ZDI-17-361,http://www.zerodayinitiative.com/advisories/ZDI-17-361,(Pwn2Own) Apple Safari WebGLRenderingContextBase drawElements Out-Of-Bounds Read Information Disclosure Vulnerability,CVE-2017-2539,
2017-05-18,ZDI-17-360,http://www.zerodayinitiative.com/advisories/ZDI-17-360,(Pwn2Own) Apple Safari WebSQL Type Confusion Information Disclosure Vulnerability,CVE-2017-6991,
2017-05-18,ZDI-17-359,http://www.zerodayinitiative.com/advisories/ZDI-17-359,(Pwn2Own) Apple macOS smbfs Out-Of-Bounds Access Privilege Escalation Vulnerability,CVE-2017-2546,
2017-05-18,ZDI-17-358,http://www.zerodayinitiative.com/advisories/ZDI-17-358,(Pwn2Own) Apple Safari Spread Operator Integer Overflow Remote Code Execution Vulnerability,CVE-2017-2536,
2017-05-18,ZDI-17-357,http://www.zerodayinitiative.com/advisories/ZDI-17-357,(Pwn2Own) Apple macOS diskarbitrationd Time-Of-Check/Time-Of-Use Privilege Escalation Vulnerability,CVE-2017-2533,
2017-05-18,ZDI-17-356,http://www.zerodayinitiative.com/advisories/ZDI-17-356,(Pwn2Own) Apple macOS authd Privilege Escalation Vulnerability,CVE-2017-2535,
2017-05-18,ZDI-17-355,http://www.zerodayinitiative.com/advisories/ZDI-17-355,(Pwn2Own) Apple macOS WindowServer XSetWindowListBrightness Out-Of-Bounds Access Privilege Escalation Vulnerability,CVE-2017-2548,
2017-05-18,ZDI-17-354,http://www.zerodayinitiative.com/advisories/ZDI-17-354,(Pwn2Own) Apple Safari B3 Optimization Out-Of-Bounds Access Remote Code Execution Vulnerability,CVE-2017-2547,
2017-05-18,ZDI-17-353,http://www.zerodayinitiative.com/advisories/ZDI-17-353,(Pwn2Own) Apple macOS WindowServer Dragging Space Use-After-Free Privilege Escalation Vulnerability,CVE-2017-2537,
2017-05-18,ZDI-17-352,http://www.zerodayinitiative.com/advisories/ZDI-17-352,(Pwn2Own) Apple macOS HFS Uninitialized Memory Information Disclosure Privilege Escalation Vulnerability,CVE-2017-6990,
2017-05-15,ZDI-17-351,http://www.zerodayinitiative.com/advisories/ZDI-17-351,(Pwn2Own) Apple macOS IOGraphic Use-After-Free Privilege Escalation Vulnerability,CVE-2017-2545,
2017-05-15,ZDI-17-350,http://www.zerodayinitiative.com/advisories/ZDI-17-350,(Pwn2Own) Apple Safari Array concat Integer Overflow Remote Code Execution Vulnerability,CVE-2017-2544,
2017-05-15,ZDI-17-349,http://www.zerodayinitiative.com/advisories/ZDI-17-349,(Pwn2Own) Apple macOS WindowServer _XGetWindowMovementGroup Stack-based Buffer Overflow Privilege Escalation Vulnerability,CVE-2017-2541,
2017-05-15,ZDI-17-348,http://www.zerodayinitiative.com/advisories/ZDI-17-348,(Pwn2Own) Apple macOS WindowServer _XGetConnectionPSN Information Disclosure Vulnerability,CVE-2017-2540,
2017-05-15,ZDI-17-347,http://www.zerodayinitiative.com/advisories/ZDI-17-347,(Pwn2Own) Apple macOS speechsynthesisd Unsigned Dylib Loading Privilege Escalation Vulnerability,CVE-2017-6977,
2017-05-15,ZDI-17-346,http://www.zerodayinitiative.com/advisories/ZDI-17-346,Apple Safari RenderElement Use-After-Free Remote Code Execution Vulnerability,CVE-2017-2506,
2017-05-15,ZDI-17-345,http://www.zerodayinitiative.com/advisories/ZDI-17-345,Apple Safari RenderInline Use-After-Free Remote Code Execution Vulnerability,CVE-2017-2526,
2017-05-15,ZDI-17-344,http://www.zerodayinitiative.com/advisories/ZDI-17-344,Apple Safari RenderLayer Use-After-Free Remote Code Execution Vulnerability,CVE-2017-2525,
2017-05-15,ZDI-17-343,http://www.zerodayinitiative.com/advisories/ZDI-17-343,Hewlett Packard Enterprise Intelligent Management Center dbman Opcode 10007 Command Injection Remote Code Execution Vulnerability,CVE-2017-5819,
2017-05-15,ZDI-17-342,http://www.zerodayinitiative.com/advisories/ZDI-17-342,Hewlett Packard Enterprise Intelligent Management Center dbman Opcode 10007 Arbitrary File Deletion Denial of Service Vulnerability,CVE-2017-5818,
2017-05-15,ZDI-17-341,http://www.zerodayinitiative.com/advisories/ZDI-17-341,Hewlett Packard Enterprise Intelligent Management Center dbman Opcode 10007 Command Injection Remote Code Execution Vulnerability,CVE-2017-5817,
2017-05-15,ZDI-17-340,http://www.zerodayinitiative.com/advisories/ZDI-17-340,Hewlett Packard Enterprise Intelligent Management Center dbman Opcode 10008 Command Injection Remote Code Execution Vulnerability,CVE-2017-5816,
2017-05-15,ZDI-17-339,http://www.zerodayinitiative.com/advisories/ZDI-17-339,Hewlett Packard Enterprise Intelligent Management Center dbman Opcode 10006 Command Injection Remote Code Execution Vulnerability,CVE-2017-5821,
2017-05-15,ZDI-17-338,http://www.zerodayinitiative.com/advisories/ZDI-17-338,Hewlett Packard Enterprise Intelligent Management Center dbman Opcode 10013 Command Injection Remote Code Execution Vulnerability,CVE-2017-5823,
2017-05-15,ZDI-17-337,http://www.zerodayinitiative.com/advisories/ZDI-17-337,Hewlett Packard Enterprise Intelligent Management Center dbman Opcode 10010 Arbitrary File Write Remote Code Execution Vulnerability,CVE-2017-5822,
2017-05-15,ZDI-17-336,http://www.zerodayinitiative.com/advisories/ZDI-17-336,Hewlett Packard Enterprise Intelligent Management Center dbman Opcode 10004 Command Injection Remote Code Execution Vulnerability,CVE-2017-5820,
2017-05-12,ZDI-17-335,http://www.zerodayinitiative.com/advisories/ZDI-17-335,Adobe Reader DC PDF Parsing Out-Of-Bounds Read Information Disclosure Vulnerability,CVE-2017-3040,
2017-05-11,ZDI-17-334,http://www.zerodayinitiative.com/advisories/ZDI-17-334,Bitdefender Internet Security Dalvik Integer Overflow Remote Code Execution Vulnerability,CVE:---------,
2017-05-11,ZDI-17-333,http://www.zerodayinitiative.com/advisories/ZDI-17-333,Bitdefender Internet Security cevakrnl Out-Of-Bounds Write Remote Code Execution Vulnerability,CVE:---------,
2017-05-11,ZDI-17-332,http://www.zerodayinitiative.com/advisories/ZDI-17-332,Hewlett Packard Enterprise Network Automation PermissionFilter Authentication Bypass Vulnerability,CVE-2017-5812,
2017-05-11,ZDI-17-331,http://www.zerodayinitiative.com/advisories/ZDI-17-331,Hewlett Packard Enterprise Network Automation RedirectServlet SQL Injection Remote Code Execution Vulnerability,CVE-2017-5810,
2017-05-11,ZDI-17-330,http://www.zerodayinitiative.com/advisories/ZDI-17-330,Hewlett Packard Enterprise Network Automation TrueControl Management Engine Service FileServlet Directory Traversal Information Disclosure Vulnerability,CVE-2017-5811,
2017-05-10,ZDI-17-329,http://www.zerodayinitiative.com/advisories/ZDI-17-329,(Pwn2Own) Microsoft Edge AudioBuffer Use-After-Free Remote Code Execution Vulnerability,CVE-2017-0240,
2017-05-10,ZDI-17-328,http://www.zerodayinitiative.com/advisories/ZDI-17-328,(Pwn2Own) Microsoft Edge AudioBuffer Use-After-Free Information Disclosure Vulnerability,CVE-2017-0240,
2017-05-10,ZDI-17-327,http://www.zerodayinitiative.com/advisories/ZDI-17-327,(Pwn2Own) Microsoft Chakra Array unshift Heap-based Buffer Overflow Remote Code Execution Vulnerability,CVE-2017-0238,
2017-05-10,ZDI-17-326,http://www.zerodayinitiative.com/advisories/ZDI-17-326,(Pwn2Own) Microsoft Chakra Array Use-After-Free Remote Code Execution Vulnerability,CVE-2017-0228,
2017-05-10,ZDI-17-324,http://www.zerodayinitiative.com/advisories/ZDI-17-324,(Pwn2Own) Microsoft Edge ArrayBuffer Use-After-Free Remote Code Execution Vulnerability,CVE-2017-0234,
2017-05-10,ZDI-17-323,http://www.zerodayinitiative.com/advisories/ZDI-17-323,Microsoft Internet Explorer Enhanced Protected Mode Sandbox Escape Vulnerability,CVE-2017-0226,
2017-05-04,ZDI-17-322,http://www.zerodayinitiative.com/advisories/ZDI-17-322,Advantech WebAccess odbcPg4 Absolute Path Traversal File Denial of Service Vulnerability,CVE-2017-7929,
2017-05-04,ZDI-17-321,http://www.zerodayinitiative.com/advisories/ZDI-17-321,(Pwn2Own) Apple Safari String replace Use-After-Free Remote Code Execution Vulnerability,CVE-2017-2491,
2017-05-03,ZDI-17-320,http://www.zerodayinitiative.com/advisories/ZDI-17-320,Mozilla Firefox ClearKeyDecryptor Integer Overflow Remote Code Execution Vulnerability,CVE-2017-5448,
2017-05-03,ZDI-17-319,http://www.zerodayinitiative.com/advisories/ZDI-17-319,Foxit Reader JPEG2000 Parsing Out-Of-Bounds Write Remote Code Execution Vulnerability,CVE:---------,
2017-05-03,ZDI-17-318,http://www.zerodayinitiative.com/advisories/ZDI-17-318,Foxit Reader JPEG2000 Parsing Out-Of-Bounds Write Remote Code Execution Vulnerability,CVE:---------,
2017-05-03,ZDI-17-317,http://www.zerodayinitiative.com/advisories/ZDI-17-317,Hewlett Packard Enterprise Intelligent Management Center imcwlandm SSID Stack-based Buffer Overflow Remote Code Execution Vulnerability,CVE-2017-5806,
2017-05-03,ZDI-17-316,http://www.zerodayinitiative.com/advisories/ZDI-17-316,Hewlett Packard Enterprise Intelligent Management Center imcwlandm UserName Stack-based Buffer Overflow Remote Code Execution Vulnerability,CVE-2017-5805,
2017-05-03,ZDI-17-315,http://www.zerodayinitiative.com/advisories/ZDI-17-315,Hewlett Packard Enterprise Intelligent Management Center imcwlandm Integer Overflow Remote Code Execution Vulnerability,CVE-2017-5804,
2017-05-02,ZDI-17-314,http://www.zerodayinitiative.com/advisories/ZDI-17-314,Google Chrome List Item Marker Type Confusion Remote Code Execution Vulnerability,CVE-2017-5059,
2017-04-21,ZDI-17-313,http://www.zerodayinitiative.com/advisories/ZDI-17-313,Foxit Reader getAnnot Use-After-Free Remote Code Execution Vulnerability,CVE:---------,
2017-04-21,ZDI-17-312,http://www.zerodayinitiative.com/advisories/ZDI-17-312,Foxit Reader Annotations lock Use-After-Free Remote Code Execution Vulnerability,CVE:---------,
2017-04-21,ZDI-17-311,http://www.zerodayinitiative.com/advisories/ZDI-17-311,Foxit Reader Annotations style Use-After-Free Remote Code Execution Vulnerability,CVE:---------,
2017-04-21,ZDI-17-310,http://www.zerodayinitiative.com/advisories/ZDI-17-310,Foxit Reader Annotations opacity Use-After-Free Remote Code Execution Vulnerability,CVE:---------,
2017-04-21,ZDI-17-309,http://www.zerodayinitiative.com/advisories/ZDI-17-309,Foxit Reader Annotations arrowEnd Use-After-Free Remote Code Execution Vulnerability,CVE:---------,
2017-04-21,ZDI-17-308,http://www.zerodayinitiative.com/advisories/ZDI-17-308,Foxit Reader importAnXFDF Use-After-Free Remote Code Execution Vulnerability,CVE:---------,
2017-04-21,ZDI-17-307,http://www.zerodayinitiative.com/advisories/ZDI-17-307,Foxit Reader Field setAction Use-After-Free Remote Code Execution Vulnerability,CVE:---------,
2017-04-21,ZDI-17-306,http://www.zerodayinitiative.com/advisories/ZDI-17-306,Foxit Reader Link setAction Use-After-Free Remote Code Execution Vulnerability,CVE:---------,
2017-04-21,ZDI-17-305,http://www.zerodayinitiative.com/advisories/ZDI-17-305,Foxit Reader getURL Use-After-Free Remote Code Execution Vulnerability,CVE:---------,
2017-04-21,ZDI-17-304,http://www.zerodayinitiative.com/advisories/ZDI-17-304,Foxit Reader spawnPageFromTemplate Use-After-Free Remote Code Execution Vulnerability,CVE:---------,
2017-04-21,ZDI-17-303,http://www.zerodayinitiative.com/advisories/ZDI-17-303,Foxit Reader Field insertItemAt Use-After-Free Remote Code Execution Vulnerability,CVE:---------,
2017-04-21,ZDI-17-302,http://www.zerodayinitiative.com/advisories/ZDI-17-302,Foxit Reader scroll Use-After-Free Remote Code Execution Vulnerability,CVE:---------,
2017-04-21,ZDI-17-301,http://www.zerodayinitiative.com/advisories/ZDI-17-301,Foxit Reader exportAsFDF Use-After-Free Remote Code Execution Vulnerability,CVE:---------,
2017-04-21,ZDI-17-300,http://www.zerodayinitiative.com/advisories/ZDI-17-300,Foxit Reader resetForm Use-After-Free Information Disclosure Vulnerability,CVE:---------,
2017-04-21,ZDI-17-299,http://www.zerodayinitiative.com/advisories/ZDI-17-299,Foxit Reader Field buttonSetCaption Use-After-Free Remote Code Execution Vulnerability,CVE:---------,
2017-04-21,ZDI-17-298,http://www.zerodayinitiative.com/advisories/ZDI-17-298,Foxit Reader response Use-After-Free Remote Code Execution Vulnerability,CVE:---------,
2017-04-21,ZDI-17-297,http://www.zerodayinitiative.com/advisories/ZDI-17-297,Foxit Reader Field getItemAt Use-After-Free Remote Code Execution Vulnerability,CVE:---------,
2017-04-21,ZDI-17-296,http://www.zerodayinitiative.com/advisories/ZDI-17-296,Foxit Reader addAnnot Use-After-Free Remote Code Execution Vulnerability,CVE:---------,
2017-04-19,ZDI-17-295,http://www.zerodayinitiative.com/advisories/ZDI-17-295,ThinPrint TPView JPEG2000 Parsing Out-Of-Bounds Write Privilege Escalation Vulnerability,CVE-2017-4911,
2017-04-19,ZDI-17-294,http://www.zerodayinitiative.com/advisories/ZDI-17-294,ThinPrint TPView JPEG2000 Parsing Out-Of-Bounds Write Privilege Escalation Vulnerability,CVE-2017-4911,
2017-04-19,ZDI-17-293,http://www.zerodayinitiative.com/advisories/ZDI-17-293,ThinPrint TPView JPEG2000 Parsing Out-Of-Bounds Write Privilege Escalation Vulnerability,CVE-2017-4911,
2017-04-19,ZDI-17-292,http://www.zerodayinitiative.com/advisories/ZDI-17-292,ThinPrint TPView JPEG2000 Parsing Heap-based Buffer Overflow Privilege Escalation Vulnerability,CVE-2017-4911,
2017-04-19,ZDI-17-291,http://www.zerodayinitiative.com/advisories/ZDI-17-291,ThinPrint TPView JPEG2000 Parsing Out-Of-Bounds Write Privilege Escalation Vulnerability,CVE-2017-4911,
2017-04-19,ZDI-17-290,http://www.zerodayinitiative.com/advisories/ZDI-17-290,ThinPrint TPView JPEG2000 Parsing Out-Of-Bounds Read Privilege Escalation Vulnerability,CVE-2017-4910,
2017-04-19,ZDI-17-289,http://www.zerodayinitiative.com/advisories/ZDI-17-289,ThinPrint TPView JPEG2000 Parsing Heap-based Buffer Overflow Privilege Escalation Vulnerability,CVE-2017-4908,
2017-04-19,ZDI-17-288,http://www.zerodayinitiative.com/advisories/ZDI-17-288,Oracle Fusion Middleware MapViewer FileUploaderServlet fileName Remote Code Execution Vulnerability,CVE-2017-3230,
2017-04-19,ZDI-17-287,http://www.zerodayinitiative.com/advisories/ZDI-17-287,Adobe Flash PSDKEvent Use-After-Free Remote Code Execution Vulnerability,CVE-2017-2994,
2017-04-12,ZDI-17-286,http://www.zerodayinitiative.com/advisories/ZDI-17-286,LAquis SCADA Software Web Server Directory Traversal Information Disclosure Vulnerability,CVE-2017-6020,
2017-04-11,ZDI-17-285,http://www.zerodayinitiative.com/advisories/ZDI-17-285,Microsoft Windows Font Object Buffer Overflow Privilege Escalation Vulnerability,CVE-2017-0155,
2017-04-11,ZDI-17-284,http://www.zerodayinitiative.com/advisories/ZDI-17-284,Microsoft Windows ADO Array-Type Parameter Use-After-Free Information Disclosure Vulnerability,CVE-2017-0158,
2017-04-11,ZDI-17-283,http://www.zerodayinitiative.com/advisories/ZDI-17-283,Trend Micro Deep Discovery Email Inspector policy_setting Arbitrary File Upload Remote Code Execution Vulnerability,CVE:---------,
2017-04-11,ZDI-17-282,http://www.zerodayinitiative.com/advisories/ZDI-17-282,(Pwn2Own) Adobe Reader DC Collab documentToStream Use-After-Free Remote Code Execution Vulnerability,CVE-2017-3057,
2017-04-11,ZDI-17-281,http://www.zerodayinitiative.com/advisories/ZDI-17-281,(Pwn2Own) Adobe Reader DC util streamFromString Uninitialized Memory Information Disclosure Vulnerability,CVE-2017-3056,
2017-04-11,ZDI-17-280,http://www.zerodayinitiative.com/advisories/ZDI-17-280,(Pwn2Own) Adobe Reader DC JPEG2000 Parsing Heap-based Buffer Overflow Remote Code Execution Vulnerability,CVE-2017-3055,
2017-04-11,ZDI-17-279,http://www.zerodayinitiative.com/advisories/ZDI-17-279,(Pwn2Own) Adobe Flash NetStream Use-After-Free Remote Code Execution Vulnerability,CVE-2017-3063,
2017-04-11,ZDI-17-278,http://www.zerodayinitiative.com/advisories/ZDI-17-278,(Pwn2Own) Adobe Flash TextField Attribute Array Use-After-Free Remote Code Execution Vulnerability,CVE-2017-3062,
2017-04-11,ZDI-17-277,http://www.zerodayinitiative.com/advisories/ZDI-17-277,Adobe Acrobat Pro DC ImageConversion JPEG Parsing Out-Of-Bounds Read Information Disclosure Vulnerability,CVE-2017-3053,
2017-04-11,ZDI-17-276,http://www.zerodayinitiative.com/advisories/ZDI-17-276,Adobe Acrobat Pro DC ImageConversion EMF Parsing Out-Of-Bounds Read Information Disclosure Vulnerability,CVE-2017-3052,
2017-04-11,ZDI-17-275,http://www.zerodayinitiative.com/advisories/ZDI-17-275,Adobe Acrobat Pro DC ImageConversion JPEG Parsing Out-Of-Bounds Read Information Disclosure Vulnerability,CVE-2017-3051,
2017-04-11,ZDI-17-274,http://www.zerodayinitiative.com/advisories/ZDI-17-274,Adobe Acrobat Pro DC ImageConversion GIF Parsing Out-Of-Bounds Write Remote Code Execution Vulnerability,CVE-2017-3050,
2017-04-11,ZDI-17-273,http://www.zerodayinitiative.com/advisories/ZDI-17-273,Adobe Acrobat Pro DC ImageConversion TIFF Parsing Heap-based Buffer Overflow Remote Code Execution Vulnerability,CVE-2017-3049,
2017-04-11,ZDI-17-272,http://www.zerodayinitiative.com/advisories/ZDI-17-272,Adobe Acrobat Pro DC ImageConversion TIFF Parsing Heap-based Buffer Overflow Remote Code Execution Vulnerability,CVE-2017-3048,
2017-04-11,ZDI-17-271,http://www.zerodayinitiative.com/advisories/ZDI-17-271,Adobe Reader DC Annotations Object Use-After-Free Remote Code Execution Vulnerability,CVE-2017-3047,
2017-04-11,ZDI-17-270,http://www.zerodayinitiative.com/advisories/ZDI-17-270,Adobe Acrobat Pro DC JPEG2000 Parsing Out-Of-Bounds Read Information Disclosure Vulnerability,CVE-2017-3046,
2017-04-11,ZDI-17-269,http://www.zerodayinitiative.com/advisories/ZDI-17-269,Adobe Acrobat Pro DC ImageConversion TIFF Parsing Out-Of-Bounds Read Information Disclosure Vulnerability,CVE-2017-3042,
2017-04-11,ZDI-17-268,http://www.zerodayinitiative.com/advisories/ZDI-17-268,Adobe Acrobat Pro DC JPEG2000 Parsing Out-Of-Bounds Read Information Disclosure Vulnerability,CVE-2017-3045,
2017-04-11,ZDI-17-267,http://www.zerodayinitiative.com/advisories/ZDI-17-267,Adobe Acrobat Pro DC JPEG2000  Parsing Out-Of-Bounds Write Remote Code Execution Vulnerability,CVE-2017-3044,
2017-04-11,ZDI-17-266,http://www.zerodayinitiative.com/advisories/ZDI-17-266,Adobe Acrobat Pro DC ImageConversion TIFF Parsing Out-Of-Bounds Read Information Disclosure Vulnerability,CVE-2017-3042,
2017-04-11,ZDI-17-265,http://www.zerodayinitiative.com/advisories/ZDI-17-265,Adobe Acrobat Pro DC ImageConversion TIFF Parsing Heap-based Buffer Overflow Remote Code Execution Vulnerability,CVE-2017-3042,
2017-04-11,ZDI-17-264,http://www.zerodayinitiative.com/advisories/ZDI-17-264,Adobe Acrobat Pro DC ImageConversion TIFF Parsing Heap-based Buffer Overflow Remote Code Execution Vulnerability,CVE-2017-3042,
2017-04-11,ZDI-17-263,http://www.zerodayinitiative.com/advisories/ZDI-17-263,Adobe Reader DC Collab shareFile Information Disclosure Vulnerability,CVE-2017-3043,
2017-04-11,ZDI-17-262,http://www.zerodayinitiative.com/advisories/ZDI-17-262,Adobe Acrobat Pro DC ImageConversion PCX Parsing Out-Of-Bounds Write Remote Code Execution Vulnerability,CVE-2017-3036,
2017-04-11,ZDI-17-261,http://www.zerodayinitiative.com/advisories/ZDI-17-261,Adobe Reader DC XFA dashDotDot Use-After-Free Remote Code Execution Vulnerability,CVE-2017-3035,
2017-04-11,ZDI-17-260,http://www.zerodayinitiative.com/advisories/ZDI-17-260,Adobe Reader DC XFA Array Index Integer Underflow Remote Code Execution Vulnerability,CVE-2017-3034,
2017-04-11,ZDI-17-259,http://www.zerodayinitiative.com/advisories/ZDI-17-259,Adobe Reader DC Nested Variables Out-Of-Bounds Read Information Disclosure Vulnerability,CVE-2017-3031,
2017-04-11,ZDI-17-258,http://www.zerodayinitiative.com/advisories/ZDI-17-258,Adobe Reader DC JPEG2000 Parsing Out-Of-Bounds Read Information Disclosure Vulnerability,CVE-2017-3033,
2017-04-11,ZDI-17-257,http://www.zerodayinitiative.com/advisories/ZDI-17-257,Adobe Reader DC JPEG2000 Parsing Out-Of-Bounds Read Information Disclosure Vulnerability,CVE-2017-3032,
2017-04-11,ZDI-17-256,http://www.zerodayinitiative.com/advisories/ZDI-17-256,Adobe Reader DC XSLT Namespace Node Out-Of-Bounds Read Information Disclosure Vulnerability,CVE-2017-3031,
2017-04-11,ZDI-17-255,http://www.zerodayinitiative.com/advisories/ZDI-17-255,Adobe Reader DC JPEG2000 Out-Of-Bounds Read Information Disclosure Vulnerability,CVE-2017-3029,
2017-04-11,ZDI-17-254,http://www.zerodayinitiative.com/advisories/ZDI-17-254,Adobe Acrobat Pro DC ImageConversion TIFF Parsing Out-Of-Bounds Write Remote Code Execution Vulnerability,CVE-2017-3028,
2017-04-11,ZDI-17-253,http://www.zerodayinitiative.com/advisories/ZDI-17-253,Adobe Reader DC JPEG2000 Out-Of-Bounds Write Remote Code Execution Vulnerability,CVE-2017-3023,
2017-04-11,ZDI-17-252,http://www.zerodayinitiative.com/advisories/ZDI-17-252,Adobe Reader DC JPEG2000 Out-Of-Bounds Read Information Disclosure Vulnerability,CVE-2017-3022,
2017-04-11,ZDI-17-251,http://www.zerodayinitiative.com/advisories/ZDI-17-251,Adobe Reader DC JPEG2000 Out-Of-Bounds Read Information Disclosure Vulnerability,CVE-2017-3021,
2017-04-11,ZDI-17-250,http://www.zerodayinitiative.com/advisories/ZDI-17-250,Adobe Reader DC Weblink Out-Of-Bounds Read Information Disclosure Vulnerability,CVE-2017-3020,
2017-04-11,ZDI-17-249,http://www.zerodayinitiative.com/advisories/ZDI-17-249,Adobe Reader DC PRC Parsing Out-Of-Bound Read Remote Code Execution Vulnerability,CVE-2017-3019,
2017-04-11,ZDI-17-248,http://www.zerodayinitiative.com/advisories/ZDI-17-248,Adobe Flash SWF Parsing Out-Of-Bounds Read Information Disclosure Vulnerability,CVE-2017-3060,
2017-04-11,ZDI-17-247,http://www.zerodayinitiative.com/advisories/ZDI-17-247,Adobe Flash SWF Parsing Out-Of-Bounds Read Information Disclosure Vulnerability,CVE-2017-3060,
2017-04-11,ZDI-17-246,http://www.zerodayinitiative.com/advisories/ZDI-17-246,Adobe Flash AS2 New Opcode Use-After-Free Remote Code Execution Vulnerability,CVE-2017-3059,
2017-04-11,ZDI-17-245,http://www.zerodayinitiative.com/advisories/ZDI-17-245,Adobe Flash ByteArray Use-After-Free Remote Code Execution Vulnerability,CVE-2017-3058,
2017-04-05,ZDI-17-244,http://www.zerodayinitiative.com/advisories/ZDI-17-244,Trend Micro Control Manager cgiShowClientAdm Missing Authentication for Critical Function Vulnerability,CVE:---------,
2017-04-05,ZDI-17-243,http://www.zerodayinitiative.com/advisories/ZDI-17-243,Trend Micro Smart Protection Server wcs_bwlists_handler Command Injection Remote Code Execution Vulnerability,CVE:---------,
2017-04-05,ZDI-17-242,http://www.zerodayinitiative.com/advisories/ZDI-17-242,Adobe Reader DC JPEG2000 Parsing Out-Of-Bounds Read Information Disclosure Vulnerability,CVE-2017-3009,
2017-03-30,ZDI-17-241,http://www.zerodayinitiative.com/advisories/ZDI-17-241,Apple Safari RenderBox Use-After-Free Remote Code Execution Vulnerability,CVE-2017-2463,
2017-03-30,ZDI-17-240,http://www.zerodayinitiative.com/advisories/ZDI-17-240,(Pwn2Own) Linux Kernel XFRM Out-Of-Bounds Access Privilege Escalation Vulnerability,CVE-2017-7184,
2017-03-30,ZDI-17-239,http://www.zerodayinitiative.com/advisories/ZDI-17-239,(Pwn2Own) VMware Workstation Uninitialized Memory Privilege Escalation Vulnerability,CVE-2017-4904,
2017-03-30,ZDI-17-238,http://www.zerodayinitiative.com/advisories/ZDI-17-238,(Pwn2Own) VMware Workstation Uninitialized Memory Information Disclosure Vulnerability,CVE-2017-4905,
2017-03-30,ZDI-17-237,http://www.zerodayinitiative.com/advisories/ZDI-17-237,(Pwn2Own) VMware Workstation SVGA Uninitialized Memory Privilege Escalation Vulnerability,CVE-2017-4903,
2017-03-30,ZDI-17-236,http://www.zerodayinitiative.com/advisories/ZDI-17-236,VMware Workstation SVGA Heap-based Buffer Overflow Privilege Escalation Vulnerability,CVE-2017-4902,
2017-03-30,ZDI-17-235,http://www.zerodayinitiative.com/advisories/ZDI-17-235,VMware Workstation SVGA Heap-based Buffer Overflow Privilege Escalation Vulnerability,CVE-2017-4902,
2017-03-30,ZDI-17-234,http://www.zerodayinitiative.com/advisories/ZDI-17-234,(Pwn2Own) Mozilla Firefox createImageBitmap Integer Overflow Remote Code Execution Vulnerability,CVE-2017-5428,
2017-03-30,ZDI-17-233,http://www.zerodayinitiative.com/advisories/ZDI-17-233,Trend Micro InterScan Web Security Virtual Appliance transparent_setting CRLF Injection Authentication Bypass Vulnerability,CVE:---------,
2017-03-30,ZDI-17-232,http://www.zerodayinitiative.com/advisories/ZDI-17-232,Trend Micro InterScan Web Security Virtual Appliance TestConfigure Command Injection Remote Code Execution Vulnerability,CVE:---------,
2017-03-30,ZDI-17-231,http://www.zerodayinitiative.com/advisories/ZDI-17-231,Trend Micro InterScan Web Security Virtual Appliance ConfigIPNetwork saveNetworkConfiguration datagateIPv6Changed Command Injection Remote Code Execution Vulnerability,CVE:---------,
2017-03-30,ZDI-17-230,http://www.zerodayinitiative.com/advisories/ZDI-17-230,Trend Micro InterScan Web Security Virtual Appliance ConfigIPNetwork saveNetworkConfiguration isMgntDHCPIPv6Changed Command Injection Remote Code Execution Vulnerability,CVE:---------,
2017-03-30,ZDI-17-229,http://www.zerodayinitiative.com/advisories/ZDI-17-229,Trend Micro InterScan Web Security Virtual Appliance PacFileManagement delete_pac_files Command Injection Remote Code Execution Vulnerability,CVE:---------,
2017-03-30,ZDI-17-228,http://www.zerodayinitiative.com/advisories/ZDI-17-228,Trend Micro InterScan Web Security Virtual Appliance ConfigIPNetwork saveNetworkConfiguration hostname Command Injection Remote Code Execution Vulnerability,CVE:---------,
2017-03-30,ZDI-17-227,http://www.zerodayinitiative.com/advisories/ZDI-17-227,Trend Micro InterScan Web Security Virtual Appliance ConfigBackup Information Disclosure Vulnerability,CVE:---------,
2017-03-30,ZDI-17-226,http://www.zerodayinitiative.com/advisories/ZDI-17-226,Trend Micro InterScan Web Security Virtual Appliance ManageIPConfig setHostname Command Injection Remote Code Execution Vulnerability,CVE:---------,
2017-03-30,ZDI-17-225,http://www.zerodayinitiative.com/advisories/ZDI-17-225,Trend Micro InterScan Web Security Virtual Appliance uihelper Privilege Escalation Vulnerability,CVE:---------,
2017-03-30,ZDI-17-224,http://www.zerodayinitiative.com/advisories/ZDI-17-224,Trend Micro InterScan Web Security Virtual Appliance ConfigIPNetwork saveNetworkConfiguration Command Injection Remote Code Execution Vulnerability,CVE:---------,
2017-03-30,ZDI-17-223,http://www.zerodayinitiative.com/advisories/ZDI-17-223,Trend Micro InterScan Web Security Virtual Appliance ConfigIPNetwork saveNetworkConfiguration manageIP6 Command Injection Remote Code Execution Vulnerability,CVE:---------,
2017-03-30,ZDI-17-222,http://www.zerodayinitiative.com/advisories/ZDI-17-222,Trend Micro InterScan Web Security Virtual Appliance ConfigIPNetwork saveNetworkConfiguration gateChanged Command Injection Remote Code Execution Vulnerability,CVE:---------,
2017-03-30,ZDI-17-221,http://www.zerodayinitiative.com/advisories/ZDI-17-221,Trend Micro InterScan Web Security Virtual Appliance ConfigIPNetwork saveNetworkConfiguration dataIP6Changed Command Injection Remote Code Execution Vulnerability,CVE:---------,
2017-03-30,ZDI-17-220,http://www.zerodayinitiative.com/advisories/ZDI-17-220,Trend Micro InterScan Web Security Virtual Appliance ContentCacheSSAction Command Injection Remote Code Execution Vulnerability,CVE:---------,
2017-03-30,ZDI-17-219,http://www.zerodayinitiative.com/advisories/ZDI-17-219,Trend Micro InterScan Web Security Virtual Appliance PacFileManagement Unrestricted File Upload Remote Code Execution Vulnerability,CVE:---------,
2017-03-30,ZDI-17-218,http://www.zerodayinitiative.com/advisories/ZDI-17-218,Trend Micro InterScan Web Security Virtual Appliance ManageIPConfig setMgmtIPConfig Command Injection Remote Code Execution Vulnerability,CVE:---------,
2017-03-30,ZDI-17-217,http://www.zerodayinitiative.com/advisories/ZDI-17-217,Trend Micro InterScan Web Security Virtual Appliance DomainList TestingADKerberos Command Injection Remote Code Execution Vulnerability,CVE:---------,
2017-03-30,ZDI-17-216,http://www.zerodayinitiative.com/advisories/ZDI-17-216,Trend Micro InterScan Web Security Virtual Appliance ManagePatches untarPatchFile Command Injection Remote Code Execution Vulnerability,CVE:---------,
2017-03-30,ZDI-17-215,http://www.zerodayinitiative.com/advisories/ZDI-17-215,Trend Micro InterScan Web Security Virtual Appliance ConfigIPNetwork saveNetworkConfiguration mgmtPingChanged Command Injection Remote Code Execution Vulnerability,CVE:---------,
2017-03-30,ZDI-17-214,http://www.zerodayinitiative.com/advisories/ZDI-17-214,Trend Micro InterScan Web Security Virtual Appliance DeploymentWizardAction GetClusterInfo Command Injection Remote Code Execution Vulnerability,CVE:---------,
2017-03-30,ZDI-17-213,http://www.zerodayinitiative.com/advisories/ZDI-17-213,Trend Micro InterScan Web Security Virtual Appliance ConfigIPNetwork saveNetworkConfiguration dataPingChanged Command Injection Remote Code Execution Vulnerability,CVE:---------,
2017-03-29,ZDI-17-212,http://www.zerodayinitiative.com/advisories/ZDI-17-212,Trend Micro InterScan Web Security Virtual Appliance ConfigIPNetwork saveNetworkConfiguration primaryDNS6 Command Injection Remote Code Execution Vulnerability,CVE:---------,
2017-03-29,ZDI-17-211,http://www.zerodayinitiative.com/advisories/ZDI-17-211,Trend Micro InterScan Web Security Virtual Appliance VerboseLog Directory Traversal Information Disclosure Vulnerability,CVE:---------,
2017-03-29,ZDI-17-210,http://www.zerodayinitiative.com/advisories/ZDI-17-210,Trend Micro InterScan Web Security Virtual Appliance ManageIPConfig setMgmtIPConfig Command Injection Remote Code Execution Vulnerability,CVE:---------,
2017-03-29,ZDI-17-209,http://www.zerodayinitiative.com/advisories/ZDI-17-209,Trend Micro InterScan Web Security Virtual Appliance LogSettingHandler doPostMountDevice Command Injection Remote Code Execution Vulnerability,CVE:---------,
2017-03-29,ZDI-17-208,http://www.zerodayinitiative.com/advisories/ZDI-17-208,Trend Micro InterScan Web Security Virtual Appliance ManagePatches rollbackPatch Command Injection Remote Code Execution Vulnerability,CVE:---------,
2017-03-29,ZDI-17-207,http://www.zerodayinitiative.com/advisories/ZDI-17-207,Trend Micro InterScan Web Security Virtual Appliance ConfigIPNetwork saveNetworkConfiguration mgmtIPv6Changed Command Injection Remote Code Execution Vulnerability,CVE:---------,
2017-03-29,ZDI-17-206,http://www.zerodayinitiative.com/advisories/ZDI-17-206,Trend Micro InterScan Web Security Virtual Appliance ReportHandler DoCmd Command Injection Remote Code Execution Vulnerability,CVE:---------,
2017-03-29,ZDI-17-205,http://www.zerodayinitiative.com/advisories/ZDI-17-205,Trend Micro InterScan Web Security Virtual Appliance ConfigIPNetwork saveNetworkConfiguration manageEth Command Injection Remote Code Execution Vulnerability,CVE:---------,
2017-03-29,ZDI-17-204,http://www.zerodayinitiative.com/advisories/ZDI-17-204,Trend Micro InterScan Web Security Virtual Appliance ConfigIPNetwork saveNetworkConfiguration isDHCP Command Injection Remote Code Execution Vulnerability,CVE:---------,
2017-03-29,ZDI-17-203,http://www.zerodayinitiative.com/advisories/ZDI-17-203,Trend Micro InterScan Web Security Virtual Appliance ManageIPConfig setDataIPConfig static IP Information Command Injection Remote Code Execution Vulnerability,CVE:---------,
2017-03-29,ZDI-17-202,http://www.zerodayinitiative.com/advisories/ZDI-17-202,Trend Micro InterScan Web Security Virtual Appliance ClusterManagement ChangeNodeSetting Command Injection Remote Code Execution Vulnerability,CVE:---------,
2017-03-29,ZDI-17-201,http://www.zerodayinitiative.com/advisories/ZDI-17-201,Trend Micro InterScan Web Security Virtual Appliance config_date_time Command Injection Remote Code Execution Vulnerability,CVE:---------,
2017-03-29,ZDI-17-200,http://www.zerodayinitiative.com/advisories/ZDI-17-200,Trend Micro InterScan Web Security Virtual Appliance WmiDCDetector getAdHost Command Injection Remote Code Execution Vulnerability,CVE:---------,
2017-03-29,ZDI-17-199,http://www.zerodayinitiative.com/advisories/ZDI-17-199,Trend Micro InterScan Web Security Virtual Appliance LogDelete processRequest method Directory Traversal Denial of Service Vulnerability,CVE:---------,
2017-03-29,ZDI-17-198,http://www.zerodayinitiative.com/advisories/ZDI-17-198,Trend Micro InterScan Web Security Virtual Appliance ConfigIPNetwork saveNetworkConfiguration mgnt_gateway6 Command Injection Remote Code Execution Vulnerability,CVE:---------,
2017-03-29,ZDI-17-197,http://www.zerodayinitiative.com/advisories/ZDI-17-197,Trend Micro InterScan Web Security Virtual Appliance ConfigIPNetwork saveNetworkConfiguration isDHCP6_data Command Injection Remote Code Execution Vulnerability,CVE:---------,
2017-03-29,ZDI-17-196,http://www.zerodayinitiative.com/advisories/ZDI-17-196,Trend Micro InterScan Web Security Virtual Appliance ConfigIPNetwork saveNetworkConfiguration proxyEthChanged Command Injection Remote Code Execution Vulnerability,CVE:---------,
2017-03-29,ZDI-17-195,http://www.zerodayinitiative.com/advisories/ZDI-17-195,Trend Micro InterScan Web Security Virtual Appliance ConfigIPNetwork saveNetworkConfiguration dataIPChanged Command Injection Remote Code Execution Vulnerability,CVE:---------,
2017-03-29,ZDI-17-194,http://www.zerodayinitiative.com/advisories/ZDI-17-194,Trend Micro InterScan Web Security Virtual Appliance ManageIPConfig setDataIPConfig DNS Information Command Injection Remote Code Execution Vulnerability,CVE:---------,
2017-03-29,ZDI-17-193,http://www.zerodayinitiative.com/advisories/ZDI-17-193,Trend Micro InterScan Web Security Virtual Appliance ManageIPConfig setDataIPConfig DHCP Information Command Injection Remote Code Execution Vulnerability,CVE:---------,
2017-03-29,ZDI-17-192,http://www.zerodayinitiative.com/advisories/ZDI-17-192,Hewlett Packard Enterprise Intelligent Management Center Service Operation Manager Module FileDownloadServlet filePath Information Disclosure Vulnerability,CVE-2017-5797,
2017-03-28,ZDI-17-191,http://www.zerodayinitiative.com/advisories/ZDI-17-191,Apple Safari ElementData Use-After-Free Remote Code Execution Vulnerability,CVE-2017-2481,
2017-03-28,ZDI-17-190,http://www.zerodayinitiative.com/advisories/ZDI-17-190,Apple macOS M4A Parsing Type Confusion Remote Code Execution Vulnerability,CVE-2017-2430,
2017-03-28,ZDI-17-189,http://www.zerodayinitiative.com/advisories/ZDI-17-189,Apple macOS M4A Parsing Heap-based Buffer Overflow Remote Code Execution Vulnerability,CVE-2017-2462,
2017-03-28,ZDI-17-188,http://www.zerodayinitiative.com/advisories/ZDI-17-188,Apple macOS ImageIO JPEG Parsing Integer Overflow Remote Code Execution Vulnerability,CVE-2017-2432,
2017-03-22,ZDI-17-187,http://www.zerodayinitiative.com/advisories/ZDI-17-187,Trend Micro InterScan Messaging Security Suite DetailReportAction Directory Traversal Information Disclosure Vulnerability,CVE:---------,
2017-03-22,ZDI-17-186,http://www.zerodayinitiative.com/advisories/ZDI-17-186,Trend Micro Control Manager CCGIServlet SpecialSpywarePolicyResult SQL Injection Remote Code Execution Vulnerability,CVE:---------,
2017-03-22,ZDI-17-185,http://www.zerodayinitiative.com/advisories/ZDI-17-185,Trend Micro Control Manager AdHocQueryExportProcessing  SQL Injection Remote Code Execution Vulnerability,CVE:---------,
2017-03-22,ZDI-17-184,http://www.zerodayinitiative.com/advisories/ZDI-17-184,Trend Micro Control Manager CCGIServlet IDTB_SV parameters SQL Injection Remote Code Execution Vulnerability,CVE:---------,
2017-03-22,ZDI-17-183,http://www.zerodayinitiative.com/advisories/ZDI-17-183,Trend Micro Control Manager CCGIServlet ID_HIDDEN_UG_STR SQL Injection Remote Code Execution Vulnerability,CVE:---------,
2017-03-22,ZDI-17-182,http://www.zerodayinitiative.com/advisories/ZDI-17-182,Trend Micro Control Manager cgiCMUIDispatcher ScheduleDownloadSavedEnableList SQL Injection Remote Code Execution Vulnerability,CVE:---------,
2017-03-22,ZDI-17-181,http://www.zerodayinitiative.com/advisories/ZDI-17-181,Trend Micro Control Manager CCGIServlet ID_QUERY_COMMAND_TRACKING_ID SQL Injection Remote Code Execution Vulnerability,CVE:---------,
2017-03-22,ZDI-17-180,http://www.zerodayinitiative.com/advisories/ZDI-17-180,Trend Micro Control Manager cgiCMUIDispatcher ManualDownloadResult SQL Injection Remote Code Execution Vulnerability,CVE:---------,
2017-03-21,ZDI-17-179,http://www.zerodayinitiative.com/advisories/ZDI-17-179,Adobe Flash MovieClip transform Use-After-Free Remote Code Execution Vulnerability,CVE-2017-3001,
2017-03-21,ZDI-17-178,http://www.zerodayinitiative.com/advisories/ZDI-17-178,Adobe Flash Transform matrix Use-After-Free Remote Code Execution Vulnerability,CVE-2017-3001,
2017-03-21,ZDI-17-177,http://www.zerodayinitiative.com/advisories/ZDI-17-177,Adobe Flash BitmapData Use-After-Free Remote Code Execution Vulnerability,CVE-2017-3001,
2017-03-21,ZDI-17-176,http://www.zerodayinitiative.com/advisories/ZDI-17-176,Adobe Flash Sound loadSound Use-After-Free Remote Code Execution Vulnerability,CVE-2017-3001,
2017-03-21,ZDI-17-175,http://www.zerodayinitiative.com/advisories/ZDI-17-175,Adobe Flash TextFormat getTextExtent Use-After-Free Remote Code Execution Vulnerability,CVE-2017-3001,
2017-03-21,ZDI-17-174,http://www.zerodayinitiative.com/advisories/ZDI-17-174,Adobe Flash AS2 RemoveClip Opcode Use-After-Free Remote Code Execution Vulnerability,CVE-2017-3001,
2017-03-21,ZDI-17-173,http://www.zerodayinitiative.com/advisories/ZDI-17-173,Microsoft Edge JavaScript Parsing Uninitialized Pointer Remote Code Execution Vulnerability,CVE-2017-0067,
2017-03-21,ZDI-17-172,http://www.zerodayinitiative.com/advisories/ZDI-17-172,Microsoft Windows JavaScript Spread Operator Uninitialized Memory Information Disclosure Vulnerability,CVE-2017-0015,
2017-03-21,ZDI-17-171,http://www.zerodayinitiative.com/advisories/ZDI-17-171,Microsoft Windows JavaScript Spread Operator Stack-based Buffer Overflow Remote Code Execution Vulnerability,CVE-2017-0032,
2017-03-21,ZDI-17-170,http://www.zerodayinitiative.com/advisories/ZDI-17-170,Microsoft Windows JavaScript Proxy Setter Type Confusion Remote Code Execution Vulnerability,CVE-2017-0094,
2017-03-21,ZDI-17-169,http://www.zerodayinitiative.com/advisories/ZDI-17-169,Microsoft Internet Explorer CHtmTag Use-After-Free Remote Code Execution Vulnerability,CVE-2017-0018,
2017-03-21,ZDI-17-168,http://www.zerodayinitiative.com/advisories/ZDI-17-168,Microsoft Windows DrawIconEx Buffer Overflow Privilege Escalation Vulnerability,CVE-2017-0047,
2017-03-21,ZDI-17-167,http://www.zerodayinitiative.com/advisories/ZDI-17-167,Microsoft Edge CTransitionValues Out-Of-Bounds Read Information Disclosure Vulnerability,CVE-2017-0011,
2017-03-11,ZDI-17-166,http://www.zerodayinitiative.com/advisories/ZDI-17-166,Hewlett Packard Enterprise Intelligent Management Center accessMgrServlet Deserialization of Untrusted Data Remote Code Execution Vulnerability,CVE-2017-5790,
2017-03-11,ZDI-17-165,http://www.zerodayinitiative.com/advisories/ZDI-17-165,Hewlett Packard Enterprise Intelligent Management Center FileDownloadServlet fileName Directory Traversal Information Disclosure Vulnerability,CVE-2017-5795,
2017-03-11,ZDI-17-164,http://www.zerodayinitiative.com/advisories/ZDI-17-164,Hewlett Packard Enterprise Intelligent Management Center FileUploadServlet Directory Traversal Remote Code Execution Vulnerability,CVE-2017-5794,
2017-03-11,ZDI-17-163,http://www.zerodayinitiative.com/advisories/ZDI-17-163,Hewlett Packard Enterprise Intelligent Management Center CommonUtils Directory Traversal Remote Code Execution Vulnerability,CVE-2017-5793,
2017-03-11,ZDI-17-162,http://www.zerodayinitiative.com/advisories/ZDI-17-162,Hewlett Packard Enterprise Intelligent Management Center RMI Registry Deserialization of Untrusted Data Remote Code Execution Vulnerability,CVE-2017-5792,
2017-03-11,ZDI-17-161,http://www.zerodayinitiative.com/advisories/ZDI-17-161,Hewlett Packard Enterprise Intelligent Management Center UrlAccessController Filter Authentication Bypass Vulnerability,CVE-2017-5791,
2017-03-09,ZDI-17-160,http://www.zerodayinitiative.com/advisories/ZDI-17-160,Hewlett Packard Enterprise LoadRunner libxdrutil mxdr_string Heap-based Buffer Overflow Remote Code Execution Vulnerability,CVE-2017-5789,
2017-03-09,ZDI-17-159,http://www.zerodayinitiative.com/advisories/ZDI-17-159,Trend Micro Deep Discovery Email Inspector download_pdf Command Injection Remote Code Execution Vulnerability,CVE:---------,
2017-03-09,ZDI-17-158,http://www.zerodayinitiative.com/advisories/ZDI-17-158,Trend Micro Deep Discovery Email Inspector write_new_html_with_svg Directory Traversal Remote Code Execution Vulnerability,CVE:---------,
2017-03-09,ZDI-17-157,http://www.zerodayinitiative.com/advisories/ZDI-17-157,Trend Micro Deep Discovery Email Inspector network_dump Command Injection Remote Code Execution Vulnerability,CVE:---------,
2017-03-09,ZDI-17-156,http://www.zerodayinitiative.com/advisories/ZDI-17-156,Trend Micro Deep Discovery Email Inspector get_filesize Command Injection Remote Code Execution Vulnerability,CVE:---------,
2017-03-09,ZDI-17-155,http://www.zerodayinitiative.com/advisories/ZDI-17-155,Trend Micro Deep Discovery Email Inspector firewall_setting Command Injection Remote Code Execution Vulnerability,CVE:---------,
2017-03-09,ZDI-17-154,http://www.zerodayinitiative.com/advisories/ZDI-17-154,Trend Micro Deep Discovery Email Inspector reboot_after_hotfix Denial of Service Vulnerability,CVE:---------,
2017-03-09,ZDI-17-153,http://www.zerodayinitiative.com/advisories/ZDI-17-153,Trend Micro Deep Discovery Email Inspector screenshot Command Injection Remote Code Execution Vulnerability,CVE:---------,
2017-03-09,ZDI-17-152,http://www.zerodayinitiative.com/advisories/ZDI-17-152,Trend Micro Deep Discovery Email Inspector ajax_checklicense_AC Command Injection Remote Code Execution Vulnerability,CVE:---------,
2017-03-09,ZDI-17-151,http://www.zerodayinitiative.com/advisories/ZDI-17-151,Trend Micro Deep Discovery Email Inspector db_export Command Injection Remote Code Execution Vulnerability,CVE:---------,
2017-03-09,ZDI-17-150,http://www.zerodayinitiative.com/advisories/ZDI-17-150,Foxit Reader Field buttonGetIcon Use-After-Free Remote Code Execution Vulnerability,CVE:---------,
2017-03-09,ZDI-17-149,http://www.zerodayinitiative.com/advisories/ZDI-17-149,Foxit Reader ePub Parsing Use-After-Free Remote Code Execution Vulnerability,CVE:---------,
2017-03-09,ZDI-17-148,http://www.zerodayinitiative.com/advisories/ZDI-17-148,Foxit Reader openDoc Use-After-Free Remote Code Execution Vulnerability,CVE:---------,
2017-03-09,ZDI-17-147,http://www.zerodayinitiative.com/advisories/ZDI-17-147,Foxit Reader Field deleteItemAt Use-After-Free Remote Code Execution Vulnerability,CVE:---------,
2017-03-09,ZDI-17-146,http://www.zerodayinitiative.com/advisories/ZDI-17-146,Foxit Reader PDB Parsing Memory Corruption Remote Code Execution Vulnerability,CVE:---------,
2017-03-09,ZDI-17-145,http://www.zerodayinitiative.com/advisories/ZDI-17-145,Foxit Reader PDF Parsing Out-Of-Bounds Read Information Disclosure Vulnerability,CVE:---------,
2017-03-09,ZDI-17-144,http://www.zerodayinitiative.com/advisories/ZDI-17-144,Foxit Reader JPEG2000 Parsing Out-Of-Bounds Read Information Disclosure Vulnerability,CVE:---------,
2017-03-09,ZDI-17-143,http://www.zerodayinitiative.com/advisories/ZDI-17-143,Foxit Reader execMenuItem Use-After-Free Remote Code Execution Vulnerability,CVE:---------,
2017-03-09,ZDI-17-142,http://www.zerodayinitiative.com/advisories/ZDI-17-142,Foxit Reader execMenuItem Use-After-Free Remote Code Execution Vulnerability,CVE:---------,
2017-03-09,ZDI-17-141,http://www.zerodayinitiative.com/advisories/ZDI-17-141,Foxit Reader execMenuItem Use-After-Free Remote Code Execution Vulnerability,CVE:---------,
2017-03-09,ZDI-17-140,http://www.zerodayinitiative.com/advisories/ZDI-17-140,Foxit Reader PDF Parsing Out-Of-Bounds Read Information Disclosure Vulnerability,CVE:---------,
2017-03-09,ZDI-17-139,http://www.zerodayinitiative.com/advisories/ZDI-17-139,Foxit Reader ePub Parsing Out-Of-Bounds Read Remote Code Execution Vulnerability,CVE:---------,
2017-03-09,ZDI-17-138,http://www.zerodayinitiative.com/advisories/ZDI-17-138,Foxit Reader XFA Out-Of-Bounds Read Remote Code Execution Vulnerability,CVE:---------,
2017-03-09,ZDI-17-137,http://www.zerodayinitiative.com/advisories/ZDI-17-137,Foxit Reader Pattern Out-Of-Bounds Read Remote Code Execution Vulnerability,CVE:---------,
2017-03-09,ZDI-17-136,http://www.zerodayinitiative.com/advisories/ZDI-17-136,Foxit Reader Xref Use-After-Free Remote Code Execution Vulnerability,CVE:---------,
2017-03-09,ZDI-17-135,http://www.zerodayinitiative.com/advisories/ZDI-17-135,Foxit Reader PDF Parsing Out-Of-Bounds Read Information Disclosure Vulnerability,CVE:---------,
2017-03-09,ZDI-17-134,http://www.zerodayinitiative.com/advisories/ZDI-17-134,Foxit Reader Font Parsing Out-Of-Bounds Read Information Disclosure Vulnerability,CVE:---------,
2017-03-09,ZDI-17-133,http://www.zerodayinitiative.com/advisories/ZDI-17-133,Foxit Reader ConvertToPDF TIFF Parsing Out-Of-Bounds Read Information Disclosure Vulnerability,CVE:---------,
2017-03-01,ZDI-17-132,http://www.zerodayinitiative.com/advisories/ZDI-17-132,Trend Micro SafeSync for Enterprise displayName_get SQL Injection Information Disclosure Vulnerability,CVE:---------,
2017-03-01,ZDI-17-131,http://www.zerodayinitiative.com/advisories/ZDI-17-131,Trend Micro SafeSync for Enterprise count_ad_members SQL Injection Information Disclosure Vulnerability,CVE:---------,
2017-03-01,ZDI-17-130,http://www.zerodayinitiative.com/advisories/ZDI-17-130,Trend Micro SafeSync for Enterprise restartService Command Injection Remote Code Execution Vulnerability,CVE:---------,
2017-03-01,ZDI-17-129,http://www.zerodayinitiative.com/advisories/ZDI-17-129,Trend Micro SafeSync for Enterprise rollback Command Injection Remote Code Execution Vulnerability,CVE:---------,
2017-03-01,ZDI-17-128,http://www.zerodayinitiative.com/advisories/ZDI-17-128,Trend Micro SafeSync for Enterprise get_device_info SQL Injection Information Disclosure Vulnerability,CVE:---------,
2017-03-01,ZDI-17-127,http://www.zerodayinitiative.com/advisories/ZDI-17-127,Trend Micro SafeSync for Enterprise get_replacement Command Injection Remote Code Execution Vulnerability,CVE:---------,
2017-03-01,ZDI-17-126,http://www.zerodayinitiative.com/advisories/ZDI-17-126,Trend Micro SafeSync for Enterprise license Command Injection Remote Code Execution Vulnerability,CVE:---------,
2017-03-01,ZDI-17-125,http://www.zerodayinitiative.com/advisories/ZDI-17-125,Trend Micro SafeSync for Enterprise get_nic_device SQL Injection Information Disclosure Vulnerability,CVE:---------,
2017-03-01,ZDI-17-124,http://www.zerodayinitiative.com/advisories/ZDI-17-124,Trend Micro SafeSync for Enterprise reconnect_nfs_device Command Injection Remote Code Execution Vulnerability,CVE:---------,
2017-03-01,ZDI-17-123,http://www.zerodayinitiative.com/advisories/ZDI-17-123,Trend Micro SafeSync for Enterprise reconnect_iscsi_device Command Injection Remote Code Execution Vulnerability,CVE:---------,
2017-03-01,ZDI-17-122,http://www.zerodayinitiative.com/advisories/ZDI-17-122,Trend Micro SafeSync for Enterprise reconnect_local_device Command Injection Remote Code Execution Vulnerability,CVE:---------,
2017-03-01,ZDI-17-121,http://www.zerodayinitiative.com/advisories/ZDI-17-121,Trend Micro SafeSync for Enterprise mount_local_device Command Injection Remote Code Execution Vulnerability,CVE:---------,
2017-03-01,ZDI-17-120,http://www.zerodayinitiative.com/advisories/ZDI-17-120,Trend Micro SafeSync for Enterprise mount_iscsi_device Command Injection Remote Code Execution Vulnerability,CVE:---------,
2017-03-01,ZDI-17-119,http://www.zerodayinitiative.com/advisories/ZDI-17-119,Trend Micro SafeSync for Enterprise replace_local_disk Command Injection Remote Code Execution Vulnerability,CVE:---------,
2017-03-01,ZDI-17-118,http://www.zerodayinitiative.com/advisories/ZDI-17-118,Trend Micro SafeSync for Enterprise dead_local_device Command Injection Remote Code Execution Vulnerability,CVE:---------,
2017-03-01,ZDI-17-117,http://www.zerodayinitiative.com/advisories/ZDI-17-117,Trend Micro SafeSync for Enterprise dead_iscsi_device Command Injection Remote Code Execution Vulnerability,CVE:---------,
2017-03-01,ZDI-17-116,http://www.zerodayinitiative.com/advisories/ZDI-17-116,Trend Micro SafeSync for Enterprise discovery_iscsi_device Command Injection Remote Code Execution Vulnerability,CVE:---------,
2017-03-01,ZDI-17-115,http://www.zerodayinitiative.com/advisories/ZDI-17-115,Trend Micro SafeSync for Enterprise save_local_config Command Injection Remote Code Execution Vulnerability,CVE:---------,
2017-03-01,ZDI-17-114,http://www.zerodayinitiative.com/advisories/ZDI-17-114,Trend Micro SafeSync for Enterprise save_iscsi_config Command Injection Remote Code Execution Vulnerability,CVE:---------,
2017-03-01,ZDI-17-113,http://www.zerodayinitiative.com/advisories/ZDI-17-113,Trend Micro SafeSync for Enterprise check_nfs_server_status Command Injection Remote Code Execution Vulnerability,CVE:---------,
2017-02-28,ZDI-17-112,http://www.zerodayinitiative.com/advisories/ZDI-17-112,VIPA Automation WinPLC7 recv Stack-based Buffer Overflow Remote Code Execution Vulnerability,CVE-2017-5177,
2017-02-16,ZDI-17-111,http://www.zerodayinitiative.com/advisories/ZDI-17-111,Adobe Acrobat Reader DC Memory Corruption Remote Code Execution Vulnerability,CVE-2017-2939,
2017-02-14,ZDI-17-110,http://www.zerodayinitiative.com/advisories/ZDI-17-110,Adobe Flash Player MediaPlayer Out-Of-Bounds Access Remote Code Execution Vulnerability,CVE-2017-2994,
2017-02-14,ZDI-17-109,http://www.zerodayinitiative.com/advisories/ZDI-17-109,Adobe Flash Player MessageChannel Type Confusion Remote Code Execution Vulnerability,CVE-2017-2995,
2017-02-14,ZDI-17-108,http://www.zerodayinitiative.com/advisories/ZDI-17-108,Adobe Digital Editions PDF Font Parsing Out-Of-Bounds Read Information Disclosure Vulnerability,CVE-2017-2976,
2017-02-14,ZDI-17-107,http://www.zerodayinitiative.com/advisories/ZDI-17-107,Adobe Digital Editions PDF Font Parsing Out-Of-Bounds Read Information Disclosure Vulnerability,CVE-2017-2975,
2017-02-14,ZDI-17-106,http://www.zerodayinitiative.com/advisories/ZDI-17-106,Adobe Digital Editions PDF Font Parsing Out-Of-Bounds Read Information Disclosure Vulnerability,CVE-2017-2974,
2017-02-14,ZDI-17-105,http://www.zerodayinitiative.com/advisories/ZDI-17-105,Adobe Digital Editions PDF Parsing Out-Of-Bounds Read Information Disclosure Vulnerability,CVE-2017-2981,
2017-02-14,ZDI-17-104,http://www.zerodayinitiative.com/advisories/ZDI-17-104,Adobe Digital Editions PDF Font Parsing Out-Of-Bounds Read Information Disclosure Vulnerability,CVE-2017-2978,
2017-02-14,ZDI-17-103,http://www.zerodayinitiative.com/advisories/ZDI-17-103,Adobe Digital Editions FlateDecode Out-Of-Bounds Read Information Disclosure Vulnerability,CVE-2017-2979,
2017-02-14,ZDI-17-102,http://www.zerodayinitiative.com/advisories/ZDI-17-102,Adobe Digital Editions FlateDecode Out-Of-Bounds Read Information Disclosure Vulnerability,CVE-2017-2977,
2017-02-07,ZDI-17-101,http://www.zerodayinitiative.com/advisories/ZDI-17-101,Trend Micro Control Manager cgiRedAlertStatusTracking SQL Injection Remote Code Execution Vulnerability,CVE:---------,
2017-02-07,ZDI-17-100,http://www.zerodayinitiative.com/advisories/ZDI-17-100,Trend Micro Control Manager CCGIServlet NotificationMethodResult SQL Injection Remote Code Execution Vulnerability,CVE:---------,
2017-02-07,ZDI-17-099,http://www.zerodayinitiative.com/advisories/ZDI-17-099,Trend Micro Control Manager AdHocQuery_Result XML External Entity Processing Information Disclosure Vulnerability,CVE:---------,
2017-02-07,ZDI-17-098,http://www.zerodayinitiative.com/advisories/ZDI-17-098,Trend Micro Control Manager CCGIServlet CnCContactAlertResult SQL Injection Remote Code Execution Vulnerability,CVE:---------,
2017-02-07,ZDI-17-097,http://www.zerodayinitiative.com/advisories/ZDI-17-097,Trend Micro Control Manager CCGIServlet HighRiskDetectionResult SQL Injection Remote Code Execution Vulnerability,CVE:---------,
2017-02-07,ZDI-17-096,http://www.zerodayinitiative.com/advisories/ZDI-17-096,Trend Micro Control Manager CCGIServlet DLPIncidentStatusChangeResult SQL Injection Remote Code Execution Vulnerability,CVE:---------,
2017-02-07,ZDI-17-095,http://www.zerodayinitiative.com/advisories/ZDI-17-095,Trend Micro Control Manager CCGIServlet StealthProgramFoundResult SQL Injection Remote Code Execution Vulnerability,CVE:---------,
2017-02-07,ZDI-17-094,http://www.zerodayinitiative.com/advisories/ZDI-17-094,Trend Micro Control Manager CCGIServlet SHA1DenyDetectionResult SQL Injection Remote Code Execution Vulnerability,CVE:---------,
2017-02-07,ZDI-17-093,http://www.zerodayinitiative.com/advisories/ZDI-17-093,Trend Micro Control Manager CCGIServlet CorrelatedIncidentResult SQL Injection Remote Code Execution Vulnerability,CVE:---------,
2017-02-07,ZDI-17-092,http://www.zerodayinitiative.com/advisories/ZDI-17-092,Trend Micro Control Manager CCGIServlet DLPIncidentScheduleSummaryResult SQL Injection Remote Code Execution Vulnerability,CVE:---------,
2017-02-07,ZDI-17-091,http://www.zerodayinitiative.com/advisories/ZDI-17-091,Trend Micro Control Manager CCGIServlet  VirtualAnalysisDetectionResult SQL Injection Remote Code Execution Vulnerability,CVE:---------,
2017-02-07,ZDI-17-090,http://www.zerodayinitiative.com/advisories/ZDI-17-090,Trend Micro Control Manager CCGIServlet  KnownAttackDetectionResult SQL Injection Remote Code Execution Vulnerability,CVE:---------,
2017-02-07,ZDI-17-089,http://www.zerodayinitiative.com/advisories/ZDI-17-089,Trend Micro Control Manager CCGIServlet SuspiciousThreat parameters SQL Injection Remote Code Execution Vulnerability,CVE:---------,
2017-02-07,ZDI-17-088,http://www.zerodayinitiative.com/advisories/ZDI-17-088,Trend Micro Control Manager CCGIServlet ID_HIDDEN_RED_ALERT_TASK_ID SQL Injection Remote Code Execution Vulnerability,CVE:---------,
2017-02-07,ZDI-17-087,http://www.zerodayinitiative.com/advisories/ZDI-17-087,Trend Micro Control Manager CCGIServlet EmailMessageDetected parameters SQL Injection Remote Code Execution Vulnerability,CVE:---------,
2017-02-07,ZDI-17-086,http://www.zerodayinitiative.com/advisories/ZDI-17-086,Trend Micro Control Manager CCGIServlet CnC parameters SQL Injection Remote Code Execution Vulnerability,CVE:---------,
2017-02-07,ZDI-17-085,http://www.zerodayinitiative.com/advisories/ZDI-17-085,Trend Micro Control Manager CCGIServlet ThreatSentToWatchlistResult SQL Injection Remote Code Execution Vulnerability,CVE:---------,
2017-02-07,ZDI-17-084,http://www.zerodayinitiative.com/advisories/ZDI-17-084,Trend Micro Control Manager ProductTree_TreeManagement1 XML External Entity Processing Information Disclosure Vulnerability,CVE:---------,
2017-02-07,ZDI-17-083,http://www.zerodayinitiative.com/advisories/ZDI-17-083,Trend Micro Control Manager ProductTree_Table XML External Entity Processing Information Disclosure Vulnerability,CVE:---------,
2017-02-07,ZDI-17-082,http://www.zerodayinitiative.com/advisories/ZDI-17-082,Trend Micro Control Manager CCGIServlet IDTB_ Parameters SQL Injection Remote Code Execution Vulnerability,CVE:---------,
2017-02-07,ZDI-17-081,http://www.zerodayinitiative.com/advisories/ZDI-17-081,Trend Micro Control Manager CCGIServlet IDTB_GroupName SQL Injection Remote Code Execution Vulnerability,CVE:---------,
2017-02-07,ZDI-17-080,http://www.zerodayinitiative.com/advisories/ZDI-17-080,Trend Micro Control Manager TreeUserControl_process_tree_event XML External Entity Processing Information Disclosure Vulnerability,CVE:---------,
2017-02-07,ZDI-17-079,http://www.zerodayinitiative.com/advisories/ZDI-17-079,Trend Micro Control Manager ProductTree XML External Entity Processing Information Disclosure Vulnerability,CVE:---------,
2017-02-07,ZDI-17-078,http://www.zerodayinitiative.com/advisories/ZDI-17-078,Trend Micro Control Manager CCGIServlet IDCB_SuspiciousThreat SQL Injection Remote Code Execution Vulnerability,CVE:---------,
2017-02-07,ZDI-17-077,http://www.zerodayinitiative.com/advisories/ZDI-17-077,Trend Micro Control Manager ProductTree_RightWindow XML External Entity Processing Information Disclosure Vulnerability,CVE:---------,
2017-02-07,ZDI-17-076,http://www.zerodayinitiative.com/advisories/ZDI-17-076,Trend Micro Control Manager ProductTree_LeftWindow XML External Entity Processing Information Disclosure Vulnerability,CVE:---------,
2017-02-07,ZDI-17-075,http://www.zerodayinitiative.com/advisories/ZDI-17-075,Trend Micro Control Manager DeploymentPlan_Event_Handler XML External Entity Processing Information Disclosure Vulnerability,CVE:---------,
2017-02-07,ZDI-17-074,http://www.zerodayinitiative.com/advisories/ZDI-17-074,Trend Micro Control Manager ProgressReportCGI SQL Injection Authentication Bypass Vulnerability,CVE:---------,
2017-02-07,ZDI-17-073,http://www.zerodayinitiative.com/advisories/ZDI-17-073,Trend Micro Control Manager cgiCMUIDispatcher Login Token SQL Injection Remote Code Execution Vulnerability,CVE:---------,
2017-02-07,ZDI-17-072,http://www.zerodayinitiative.com/advisories/ZDI-17-072,Trend Micro Control Manager dlp_policy Directory Traversal Remote Code Execution Vulnerability,CVE:---------,
2017-02-07,ZDI-17-071,http://www.zerodayinitiative.com/advisories/ZDI-17-071,Trend Micro Control Manager dlp_policy Directory Traversal Remote Code Execution Vulnerability,CVE:---------,
2017-02-07,ZDI-17-070,http://www.zerodayinitiative.com/advisories/ZDI-17-070,Trend Micro Control Manager dlp_policy Directory Traversal Remote Code Execution Vulnerability,CVE:---------,
2017-02-07,ZDI-17-069,http://www.zerodayinitiative.com/advisories/ZDI-17-069,Trend Micro Control Manager modDLPViolationCnt_drildown Directory Traversal Remote Code Execution Vulnerability,CVE:---------,
2017-02-07,ZDI-17-068,http://www.zerodayinitiative.com/advisories/ZDI-17-068,Trend Micro Control Manager modDLPViolationCnt_drildown Directory Traversal Remote Code Execution Vulnerability,CVE:---------,
2017-02-07,ZDI-17-067,http://www.zerodayinitiative.com/advisories/ZDI-17-067,Trend Micro Control Manager modDLPViolationCnt_drildown Directory Traversal Remote Code Execution Vulnerability,CVE:---------,
2017-02-07,ZDI-17-066,http://www.zerodayinitiative.com/advisories/ZDI-17-066,Trend Micro Control Manager modDLPTemplateMatch_drildown Directory Traversal Remote Code Execution Vulnerability,CVE:---------,
2017-02-07,ZDI-17-065,http://www.zerodayinitiative.com/advisories/ZDI-17-065,Trend Micro Control Manager modDLPTemplateMatch_drildown Directory Traversal Remote Code Execution Vulnerability,CVE:---------,
2017-02-07,ZDI-17-064,http://www.zerodayinitiative.com/advisories/ZDI-17-064,Trend Micro Control Manager  modDLPTemplateMatch_drildown Directory Traversal Remote Code Execution Vulnerability,CVE:---------,
2017-02-07,ZDI-17-063,http://www.zerodayinitiative.com/advisories/ZDI-17-063,Trend Micro Control Manager importFile Directory Traversal Remote Code Execution Vulnerability,CVE:---------,
2017-02-07,ZDI-17-062,http://www.zerodayinitiative.com/advisories/ZDI-17-062,Trend Micro Control Manager download Directory Traversal Information Disclosure Vulnerability,CVE:---------,
2017-02-07,ZDI-17-061,http://www.zerodayinitiative.com/advisories/ZDI-17-061,Trend Micro Control Manager download Directory Traversal Information Disclosure Vulnerability,CVE:---------,
2017-02-07,ZDI-17-060,http://www.zerodayinitiative.com/advisories/ZDI-17-060,Trend Micro Control Manager importFile Directory Traversal Remote Code Execution Vulnerability,CVE:---------,
2017-02-07,ZDI-17-059,http://www.zerodayinitiative.com/advisories/ZDI-17-059,Ecava IntegraXor getdata param SQL Injection Remote Code Execution Vulnerability,CVE-2016-8341,
2017-02-07,ZDI-17-058,http://www.zerodayinitiative.com/advisories/ZDI-17-058,Ecava IntegraXor getdata name SQL Injection Remote Code Execution Vulnerability,CVE-2016-8341,
2017-01-24,ZDI-17-057,http://www.zerodayinitiative.com/advisories/ZDI-17-057,Oracle Java Uninitialized Memory Remote Code Execution Vulnerability,CVE-2017-3289,
2017-01-24,ZDI-17-056,http://www.zerodayinitiative.com/advisories/ZDI-17-056,Oracle Java AtomicReferenceFieldUpdater Type Confusion Remote Code Execution Vulnerability,CVE-2017-3272,
2017-01-24,ZDI-17-055,http://www.zerodayinitiative.com/advisories/ZDI-17-055,Oracle WebLogic RMI Registry UnicastRef Object Deserialization of Untrusted Data Remote Code Execution Vulnerability,CVE-2017-3248,
2017-01-24,ZDI-17-054,http://www.zerodayinitiative.com/advisories/ZDI-17-054,Apple Safari SearchInputType Type Confusion Remote Code Execution Vulnerability,CVE-2017-2354,
2017-01-20,ZDI-17-053,http://www.zerodayinitiative.com/advisories/ZDI-17-053,Samba NDR Parsing ndr_pull_dnsp_name Heap-based Buffer Overflow Remote Code Execution Vulnerability,CVE-2016-2123,
2017-01-20,ZDI-17-052,http://www.zerodayinitiative.com/advisories/ZDI-17-052,Brocade Network Advisor CliMonitorReportServlet Directory Traversal Information Disclosure Vulnerability,CVE-2016-8207,
2017-01-20,ZDI-17-051,http://www.zerodayinitiative.com/advisories/ZDI-17-051,Brocade Network Advisor  SoftwareImageUpload Directory Traversal Arbitrary File Deletion Vulnerability,CVE-2016-8206,
2017-01-20,ZDI-17-050,http://www.zerodayinitiative.com/advisories/ZDI-17-050,Brocade Network Advisor DashboardFileReceiveServlet Directory Traversal Remote Code Execution Vulnerability,CVE-2016-8205,
2017-01-20,ZDI-17-049,http://www.zerodayinitiative.com/advisories/ZDI-17-049,Brocade Network Advisor FileReceiveServlet Directory Traversal Remote Code Execution Vulnerability,CVE-2016-8204,
2017-01-20,ZDI-17-048,http://www.zerodayinitiative.com/advisories/ZDI-17-048,Bitdefender Internet Security NSIS Entries Integer Overflow Remote Code Execution Vulnerability,CVE:---------,
2017-01-20,ZDI-17-047,http://www.zerodayinitiative.com/advisories/ZDI-17-047,Bitdefender Internet Security NSIS Pages Integer Overflow Remote Code Execution Vulnerability,CVE:---------,
2017-01-20,ZDI-17-046,http://www.zerodayinitiative.com/advisories/ZDI-17-046,Bitdefender Internet Security SIS Parsing Integer Overflow Remote Code Execution Vulnerability,CVE:---------,
2017-01-20,ZDI-17-045,http://www.zerodayinitiative.com/advisories/ZDI-17-045,Adobe Reader DC XSLT apply-templates Heap-based Buffer Overflow Remote Code Execution Vulnerability,CVE-2017-2970,
2017-01-20,ZDI-17-044,http://www.zerodayinitiative.com/advisories/ZDI-17-044,Apache Groovy MethodClosure Deserialization of Untrusted Data Remote Code Execution Vulnerability,CVE-2016-6814,
2017-01-12,ZDI-17-043,http://www.zerodayinitiative.com/advisories/ZDI-17-043,Advantech WebAccess updateTemplate SQL Injection Information Disclosure Vulnerability,CVE-2017-5154, CVE-2017-5152,
2017-01-11,ZDI-17-042,http://www.zerodayinitiative.com/advisories/ZDI-17-042,Foxit PhantomPDF ConvertToPDF TIFF Parsing Memory Corruption Remote Code Execution Vulnerability,CVE:---------,
2017-01-11,ZDI-17-041,http://www.zerodayinitiative.com/advisories/ZDI-17-041,Foxit Reader JPEG2000 Parsing Out-Of-Bounds Write Remote Code Execution Vulnerability,CVE:---------,
2017-01-11,ZDI-17-040,http://www.zerodayinitiative.com/advisories/ZDI-17-040,Foxit Reader JPEG2000 Parsing Out-Of-Bounds Read Information Disclosure Vulnerability,CVE:---------,
2017-01-11,ZDI-17-039,http://www.zerodayinitiative.com/advisories/ZDI-17-039,Foxit PhantomPDF ConvertToPDF JPEG Parsing Out-Of-Bounds Read Information Disclosure Vulnerability,CVE:---------,
2017-01-11,ZDI-17-038,http://www.zerodayinitiative.com/advisories/ZDI-17-038,Foxit Reader setInterval Use-After-Free Remote Code Execution Vulnerability,CVE:---------,
2017-01-11,ZDI-17-037,http://www.zerodayinitiative.com/advisories/ZDI-17-037,Foxit Reader Font Parsing Out-Of-Bounds Read Information Disclosure Vulnerability,CVE:---------,
2017-01-11,ZDI-17-036,http://www.zerodayinitiative.com/advisories/ZDI-17-036,Foxit Reader JPEG2000 Parsing Out-Of-Bounds Read Information Disclosure Vulnerability,CVE:---------,
2017-01-11,ZDI-17-035,http://www.zerodayinitiative.com/advisories/ZDI-17-035,Foxit Reader JPEG2000 Parsing Out-Of-Bounds Write Remote Code Execution Vulnerability,CVE:---------,
2017-01-11,ZDI-17-034,http://www.zerodayinitiative.com/advisories/ZDI-17-034,Foxit Reader alert Use-After-Free Remote Code Execution Vulnerability,CVE:---------,
2017-01-11,ZDI-17-033,http://www.zerodayinitiative.com/advisories/ZDI-17-033,Foxit Reader JPEG2000 Parsing Out-Of-Bounds Read Information Disclosure Vulnerability,CVE:---------,
2017-01-11,ZDI-17-032,http://www.zerodayinitiative.com/advisories/ZDI-17-032,Foxit Reader JPEG2000 Parsing Out-Of-Bounds Write Remote Code Execution Vulnerability,CVE:---------,
2017-01-10,ZDI-17-031,http://www.zerodayinitiative.com/advisories/ZDI-17-031,Adobe Reader DC XFA template Out-Of-Bounds Read Remote Code Execution Vulnerability,CVE-2017-2967,
2017-01-10,ZDI-17-030,http://www.zerodayinitiative.com/advisories/ZDI-17-030,Adobe Acrobat Pro DC ImageConversion TIFF Parsing Heap-based Buffer Overflow Remote Code Execution Vulnerability,CVE-2017-2966,
2017-01-10,ZDI-17-029,http://www.zerodayinitiative.com/advisories/ZDI-17-029,Adobe Reader DC XSLT call-template Heap-based Buffer Overflow Remote Code Execution Vulnerability,CVE-2017-2949,
2017-01-10,ZDI-17-028,http://www.zerodayinitiative.com/advisories/ZDI-17-028,Adobe Reader DC XSLT element Heap-based Buffer Overflow Remote Code Execution Vulnerability,CVE-2017-2949,
2017-01-10,ZDI-17-027,http://www.zerodayinitiative.com/advisories/ZDI-17-027,Adobe Acrobat Pro DC ImageConversion TIFF Parsing Out-Of-Bounds Read Information Disclosure Vulnerability,CVE-2017-2963,
2017-01-10,ZDI-17-026,http://www.zerodayinitiative.com/advisories/ZDI-17-026,Adobe Reader DC XSLT lang Type Confusion Remote Code Execution Vulnerability,CVE-2017-2962,
2017-01-10,ZDI-17-025,http://www.zerodayinitiative.com/advisories/ZDI-17-025,Acrobat Reader DC XFA Field Font Size Use-After-Free Remote Code Execution Vulnerability,CVE-2017-2961,
2017-01-10,ZDI-17-024,http://www.zerodayinitiative.com/advisories/ZDI-17-024,Adobe Acrobat Pro DC ImageConversion JPEG Parsing Out-Of-Bounds Read Information Disclosure Vulnerability,CVE-2017-2960,
2017-01-10,ZDI-17-023,http://www.zerodayinitiative.com/advisories/ZDI-17-023,Adobe Acrobat Pro DC ImageConversion JPEG Parsing Heap-based Buffer Overflow Remote Code Execution Vulnerability,CVE-2017-2959,
2017-01-10,ZDI-17-022,http://www.zerodayinitiative.com/advisories/ZDI-17-022,Adobe Reader DC XFA hyphenation Use-After-Free Remote Code Execution Vulnerability,CVE-2017-2951,
2017-01-10,ZDI-17-021,http://www.zerodayinitiative.com/advisories/ZDI-17-021,Adobe Reader DC XFA Layout Use-After-Free Remote Code Execution Vulnerability,CVE-2017-2950,
2017-01-10,ZDI-17-020,http://www.zerodayinitiative.com/advisories/ZDI-17-020,Adobe Reader DC XSLT decimal-format Heap-based Buffer Overflow Remote Code Execution Vulnerability,CVE-2017-2949,
2017-01-10,ZDI-17-019,http://www.zerodayinitiative.com/advisories/ZDI-17-019,Adobe Reader DC XSLT namespace-alias Heap-based Buffer Overflow Remote Code Execution Vulnerability,CVE-2017-2949,
2017-01-10,ZDI-17-018,http://www.zerodayinitiative.com/advisories/ZDI-17-018,Adobe Reader DC XSLT processing-instruction Heap-based Buffer Overflow Remote Code Execution Vulnerability,CVE-2017-2949,
2017-01-10,ZDI-17-017,http://www.zerodayinitiative.com/advisories/ZDI-17-017,Adobe Reader DC XSLT function-available Heap-based Buffer Overflow Remote Code Execution Vulnerability,CVE-2017-2949,
2017-01-10,ZDI-17-016,http://www.zerodayinitiative.com/advisories/ZDI-17-016,Adobe Reader DC XSLT sort Heap-based Buffer Overflow Remote Code Execution Vulnerability,CVE-2017-2949,
2017-01-10,ZDI-17-015,http://www.zerodayinitiative.com/advisories/ZDI-17-015,Adobe Reader DC XSLT key Heap-based Buffer Overflow Remote Code Execution Vulnerability,CVE-2017-2949,
2017-01-10,ZDI-17-014,http://www.zerodayinitiative.com/advisories/ZDI-17-014,Adobe Acrobat Pro DC ImageConversion JPEG Parsing Out-Of-Bounds Read Information Disclosure Vulnerability,CVE-2017-2964,
2017-01-10,ZDI-17-013,http://www.zerodayinitiative.com/advisories/ZDI-17-013,Adobe Reader DC XSLT key Heap-based Buffer Overflow Remote Code Execution Vulnerability,CVE-2017-2949,
2017-01-10,ZDI-17-012,http://www.zerodayinitiative.com/advisories/ZDI-17-012,Adobe Reader DC XSLT attribute Heap-based Buffer Overflow Remote Code Execution Vulnerability,CVE-2017-2949,
2017-01-10,ZDI-17-011,http://www.zerodayinitiative.com/advisories/ZDI-17-011,Adobe Reader DC XSLT attribute-set Heap-based Buffer Overflow Remote Code Execution Vulnerability,CVE-2017-2949,
2017-01-10,ZDI-17-010,http://www.zerodayinitiative.com/advisories/ZDI-17-010,Adobe Acrobat Pro DC ImageConversion TIFF Parsing Out-Of-Bounds Write Remote Code Execution Vulnerability,CVE-2017-2965,
2017-01-10,ZDI-17-009,http://www.zerodayinitiative.com/advisories/ZDI-17-009,Adobe Reader DC XSLT format-number Heap-based Buffer Overflow Remote Code Execution Vulnerability,CVE-2017-2949,
2017-01-10,ZDI-17-008,http://www.zerodayinitiative.com/advisories/ZDI-17-008,Adobe Reader DC XSLT output Heap-based Buffer Overflow Remote Code Execution Vulnerability,CVE-2017-2949,
2017-01-10,ZDI-17-007,http://www.zerodayinitiative.com/advisories/ZDI-17-007,Adobe Reader DC XSLT variable Heap-based Buffer Overflow Remote Code Execution Vulnerability,CVE-2017-2949,
2017-01-10,ZDI-17-006,http://www.zerodayinitiative.com/advisories/ZDI-17-006,Adobe Reader DC XSLT system-property Heap-based Buffer Overflow Remote Code Execution Vulnerability,CVE-2017-2949,
2017-01-10,ZDI-17-005,http://www.zerodayinitiative.com/advisories/ZDI-17-005,Adobe Reader DC XSLT element-available Heap-based Buffer Overflow Remote Code Execution Vulnerability,CVE-2017-2949,
2017-01-10,ZDI-17-004,http://www.zerodayinitiative.com/advisories/ZDI-17-004,Adobe Reader DC JPEG2000 Parsing Out-Of-Bounds Read Information Disclosure Vulnerability,CVE-2017-2946,
2017-01-10,ZDI-17-003,http://www.zerodayinitiative.com/advisories/ZDI-17-003,Adobe Reader DC JPEG2000 Parsing Heap-based Buffer Overflow Remote Code Execution Vulnerability,CVE-2017-2946,
2017-01-10,ZDI-17-002,http://www.zerodayinitiative.com/advisories/ZDI-17-002,Adobe Reader DC Font Parsing Out-Of-Bounds Read Information Disclosure Vulnerability,CVE-2017-2941,
2017-01-10,ZDI-17-001,http://www.zerodayinitiative.com/advisories/ZDI-17-001,Hewlett Packard Enterprise Operations Orchestration Backwards Compatibility Deserialization of Untrusted Data Remote Code Execution Vulnerability,CVE-2016-8519,
